{
  "version": "51.33",
  "log_list_timestamp": "2025-03-05T12:55:20Z",
  "operators": [
    {
      "name": "Google",
      "email": [
        "google-ct-logs@googlegroups.com"
      ],
      "logs": [
        {
          "description": "Google 'Argon2025h1' log",
          "log_id": "TnWjJ1yaEMM4W2zU3z9S6x3w4I4bjWnAsfpksWKaOd8=",
          "key": "MFkwEwYHKoZIzj0CAQYIKoZIzj0DAQcDQgAEIIKh+WdoqOTblJji4WiH5AltIDUzODyvFKrXCBjw/Rab0/98J4LUh7dOJEY7+66+yCNSICuqRAX+VPnV8R1Fmg==",
          "url": "https://ct.googleapis.com/logs/us1/argon2025h1/",
          "mmd": 86400,
          "state": {
            "usable": {
              "timestamp": "2023-11-26T12:00:00Z"
            }
          },
          "temporal_interval": {
            "start_inclusive": "2025-01-01T00:00:00Z",
            "end_exclusive": "2025-07-01T00:00:00Z"
          }
        },
        {
          "description": "Google 'Argon2025h2' log",
          "log_id": "EvFONL1TckyEBhnDjz96E/jntWKHiJxtMAWE6+WGJjo=",
          "key": "MFkwEwYHKoZIzj0CAQYIKoZIzj0DAQcDQgAEr+TzlCzfpie1/rJhgxnIITojqKk9VK+8MZoc08HjtsLzD8e5yjsdeWVhIiWCVk6Y6KomKTYeKGBv6xVu93zQug==",
          "url": "https://ct.googleapis.com/logs/us1/argon2025h2/",
          "mmd": 86400,
          "state": {
            "usable": {
              "timestamp": "2023-11-26T12:00:00Z"
            }
          },
          "temporal_interval": {
            "start_inclusive": "2025-07-01T00:00:00Z",
            "end_exclusive": "2026-01-01T00:00:00Z"
          }
        },
        {
          "description": "Google 'Argon2026h1' log",
          "log_id": "DleUvPOuqT4zGyyZB7P3kN+bwj1xMiXdIaklrGHFTiE=",
          "key": "MFkwEwYHKoZIzj0CAQYIKoZIzj0DAQcDQgAEB/we6GOO/xwxivy4HhkrYFAAPo6e2nc346Wo2o2U+GvoPWSPJz91s/xrEvA3Bk9kWHUUXVZS5morFEzsgdHqPg==",
          "url": "https://ct.googleapis.com/logs/us1/argon2026h1/",
          "mmd": 86400,
          "state": {
            "usable": {
              "timestamp": "2024-09-30T22:19:27Z"
            }
          },
          "temporal_interval": {
            "start_inclusive": "2026-01-01T00:00:00Z",
            "end_exclusive": "2026-07-01T00:00:00Z"
          }
        },
        {
          "description": "Google 'Argon2026h2' log",
          "log_id": "1219ENGn9XfCx+lf1wC/+YLJM1pl4dCzAXMXwMjFaXc=",
          "key": "MFkwEwYHKoZIzj0CAQYIKoZIzj0DAQcDQgAEKjpni/66DIYrSlGK6Rf+e6F2c/28ZUvDJ79N81+gyimAESAyeNZ++TRgjHWg9TVQnKHTSU0T1TtqDupFnSQTIg==",
          "url": "https://ct.googleapis.com/logs/us1/argon2026h2/",
          "mmd": 86400,
          "state": {
            "usable": {
              "timestamp": "2024-09-30T22:19:27Z"
            }
          },
          "temporal_interval": {
            "start_inclusive": "2026-07-01T00:00:00Z",
            "end_exclusive": "2027-01-01T00:00:00Z"
          }
        },
        {
          "description": "Google 'Xenon2025h1' log",
          "log_id": "zxFW7tUufK/zh1vZaS6b6RpxZ0qwF+ysAdJbd87MOwg=",
          "key": "MFkwEwYHKoZIzj0CAQYIKoZIzj0DAQcDQgAEguLOkEA/gQ7f6uEgK14uMFRGgblY7a+9/zanngtfamuRpcGY4fLN6xcgcMoqEuZUeFDc/239HKe2Oh/5JqkbvQ==",
          "url": "https://ct.googleapis.com/logs/eu1/xenon2025h1/",
          "mmd": 86400,
          "state": {
            "usable": {
              "timestamp": "2023-11-26T12:00:00Z"
            }
          },
          "temporal_interval": {
            "start_inclusive": "2025-01-01T00:00:00Z",
            "end_exclusive": "2025-07-01T00:00:00Z"
          }
        },
        {
          "description": "Google 'Xenon2025h2' log",
          "log_id": "3dzKNJXX4RYF55Uy+sef+D0cUN/bADoUEnYKLKy7yCo=",
          "key": "MFkwEwYHKoZIzj0CAQYIKoZIzj0DAQcDQgAEa+Cv7QZ8Pe/ZDuRYSwTYKkeZkIl6uTaldcgEuMviqiu1aJ2IKaKlz84rmhWboD6dlByyt0ryUexA7WJHpANJhg==",
          "url": "https://ct.googleapis.com/logs/eu1/xenon2025h2/",
          "mmd": 86400,
          "state": {
            "usable": {
              "timestamp": "2023-11-26T12:00:00Z"
            }
          },
          "temporal_interval": {
            "start_inclusive": "2025-07-01T00:00:00Z",
            "end_exclusive": "2026-01-01T00:00:00Z"
          }
        },
        {
          "description": "Google 'Xenon2026h1' log",
          "log_id": "lpdkv1VYl633Q4doNwhCd+nwOtX2pPM2bkakPw/KqcY=",
          "key": "MFkwEwYHKoZIzj0CAQYIKoZIzj0DAQcDQgAEOh/Iu87VkEc0ysoBBCchHOIpPZK7kUXHWj6l1PIS5ujmQ7rze8I4r/wjigVW6wMKMMxjbNk8vvV7lLqU07+ITA==",
          "url": "https://ct.googleapis.com/logs/eu1/xenon2026h1/",
          "mmd": 86400,
          "state": {
            "usable": {
              "timestamp": "2024-09-30T22:19:27Z"
            }
          },
          "temporal_interval": {
            "start_inclusive": "2026-01-01T00:00:00Z",
            "end_exclusive": "2026-07-01T00:00:00Z"
          }
        },
        {
          "description": "Google 'Xenon2026h2' log",
          "log_id": "2AlVO5RPev/IFhlvlE+Fq7D4/F6HVSYPFdEucrtFSxQ=",
          "key": "MFkwEwYHKoZIzj0CAQYIKoZIzj0DAQcDQgAE5Xd4lXEos5XJpcx6TOgyA5Z7/C4duaTbQ6C9aXL5Rbqaw+mW1XDnDX7JlRUninIwZYZDU9wRRBhJmCVopzwFvw==",
          "url": "https://ct.googleapis.com/logs/eu1/xenon2026h2/",
          "mmd": 86400,
          "state": {
            "usable": {
              "timestamp": "2024-09-30T22:19:27Z"
            }
          },
          "temporal_interval": {
            "start_inclusive": "2026-07-01T00:00:00Z",
            "end_exclusive": "2027-01-01T00:00:00Z"
          }
        }
      ],
      "tiled_logs": []
    },
    {
      "name": "Cloudflare",
      "email": [
        "ct-logs@cloudflare.com",
        "mihir@cloudflare.com",
        "dkozlov@cloudflare.com",
        "leland@cloudflare.com"
      ],
      "logs": [
        {
          "description": "Cloudflare 'Nimbus2025'",
          "log_id": "zPsPaoVxCWX+lZtTzumyfCLphVwNl422qX5UwP5MDbA=",
          "key": "MFkwEwYHKoZIzj0CAQYIKoZIzj0DAQcDQgAEGoAaFRkZI3m0+qB5jo3VwdzCtZaSfpTgw34UfAoNLUaonRuxQWUMX5jEWhd5gVtKFEHsr6ldDqsSGXHNQ++7lw==",
          "url": "https://ct.cloudflare.com/logs/nimbus2025/",
          "mmd": 86400,
          "state": {
            "usable": {
              "timestamp": "2023-12-19T07:00:00Z"
            }
          },
          "temporal_interval": {
            "start_inclusive": "2025-01-01T00:00:00Z",
            "end_exclusive": "2026-01-01T00:00:00Z"
          }
        },
        {
          "description": "Cloudflare 'Nimbus2026'",
          "log_id": "yzj3FYl8hKFEX1vB3fvJbvKaWc1HCmkFhbDLFMMUWOc=",
          "key": "MFkwEwYHKoZIzj0CAQYIKoZIzj0DAQcDQgAE2FxhT6xq0iCATopC9gStS9SxHHmOKTLeaVNZ661488Aq8tARXQV+6+jB0983v5FkRm4OJxPqu29GJ1iG70Ahow==",
          "url": "https://ct.cloudflare.com/logs/nimbus2026/",
          "mmd": 86400,
          "state": {
            "usable": {
              "timestamp": "2024-11-08T18:00:00Z"
            }
          },
          "temporal_interval": {
            "start_inclusive": "2026-01-01T00:00:00Z",
            "end_exclusive": "2027-01-01T00:00:00Z"
          }
        }
      ],
      "tiled_logs": []
    },
    {
      "name": "DigiCert",
      "email": [
        "ctops@digicert.com"
      ],
      "logs": [
        {
          "description": "DigiCert Yeti2025 Log",
          "log_id": "fVkeEuF4KnscYWd8Xv340IdcFKBOlZ65Ay/ZDowuebg=",
          "key": "MFkwEwYHKoZIzj0CAQYIKoZIzj0DAQcDQgAE35UAXhDBAfc34xB00f+yypDtMplfDDn+odETEazRs3OTIMITPEy1elKGhj3jlSR82JGYSDvw8N8h8bCBWlklQw==",
          "url": "https://yeti2025.ct.digicert.com/log/",
          "mmd": 86400,
          "state": {
            "usable": {
              "timestamp": "2022-11-01T18:54:00Z"
            }
          },
          "temporal_interval": {
            "start_inclusive": "2025-01-01T00:00:00Z",
            "end_exclusive": "2026-01-01T00:00:00Z"
          }
        },
        {
          "description": "DigiCert Nessie2025 Log",
          "log_id": "5tIxY0B3jMEQQQbXcbnOwdJA9paEhvu6hzId/R43jlA=",
          "key": "MFkwEwYHKoZIzj0CAQYIKoZIzj0DAQcDQgAE8vDwp4uBLgk5O59C2jhEX7TM7Ta72EN/FklXhwR/pQE09+hoP7d4H2BmLWeadYC3U6eF1byrRwZV27XfiKFvOA==",
          "url": "https://nessie2025.ct.digicert.com/log/",
          "mmd": 86400,
          "state": {
            "usable": {
              "timestamp": "2022-11-01T18:54:00Z"
            }
          },
          "temporal_interval": {
            "start_inclusive": "2025-01-01T00:00:00Z",
            "end_exclusive": "2026-01-01T00:00:00Z"
          }
        },
        {
          "description": "DigiCert 'Wyvern2025h1' Log",
          "log_id": "cyAiDwgWivnzxKaLCrJqmkoA7vV3hYoITQUA1KVCRFk=",
          "key": "MFkwEwYHKoZIzj0CAQYIKoZIzj0DAQcDQgAEp8uAYYYbH7WrKyB2WYNmDs6uuG87iALrQ/SHkMuL2qwOGVDg+SQOqyaTjD+eDZZYRJ07ioDFyL7hiUZrSEzWCQ==",
          "url": "https://wyvern.ct.digicert.com/2025h1/",
          "mmd": 86400,
          "state": {
            "usable": {
              "timestamp": "2024-08-29T03:09:43Z"
            }
          },
          "temporal_interval": {
            "start_inclusive": "2025-01-01T00:00:00Z",
            "end_exclusive": "2025-07-07T00:00:00Z"
          }
        },
        {
          "description": "DigiCert 'Wyvern2025h2' Log",
          "log_id": "7TxL1ugGwqSiAFfbyyTiOAHfUS/txIbFcA8g3bc+P+A=",
          "key": "MFkwEwYHKoZIzj0CAQYIKoZIzj0DAQcDQgAE4NtB7+QEvctrLkzM8WzeQVh//pT2evZg7Yt2cqOiHDETMjWh8gjSaMU0p1YIHGPeleKBaZeNHqi3ZlEldU14Lg==",
          "url": "https://wyvern.ct.digicert.com/2025h2/",
          "mmd": 86400,
          "state": {
            "usable": {
              "timestamp": "2024-08-29T03:09:43Z"
            }
          },
          "temporal_interval": {
            "start_inclusive": "2025-07-01T00:00:00Z",
            "end_exclusive": "2026-01-07T00:00:00Z"
          }
        },
        {
          "description": "DigiCert 'Wyvern2026h1'",
          "log_id": "ZBHEbKQS7KeJHKICLgC8q08oB9QeNSer6v7VA8l9zfA=",
          "key": "MFkwEwYHKoZIzj0CAQYIKoZIzj0DAQcDQgAE7Lw0OeKajbeZepHxBXJS2pOJXToHi5ntgKUW2nMhIOuGlofFxtkXum65TBNY1dGD+HrfHge8Fc3ASs0qMXEHVQ==",
          "url": "https://wyvern.ct.digicert.com/2026h1/",
          "mmd": 86400,
          "state": {
            "usable": {
              "timestamp": "2024-11-08T00:00:00Z"
            }
          },
          "temporal_interval": {
            "start_inclusive": "2026-01-01T00:00:00Z",
            "end_exclusive": "2026-07-01T00:00:00Z"
          }
        },
        {
          "description": "DigiCert 'Wyvern2026h2'",
          "log_id": "wjF+V0UZo0XufzjespBB68fCIVoiv3/Vta12mtkOUs0=",
          "key": "MFkwEwYHKoZIzj0CAQYIKoZIzj0DAQcDQgAEenPbSvLeT+zhFBu+pqk8IbhFEs16iCaRIFb1STLDdWzL6XwTdTWcbOzxMTzB3puME5K3rT0PoZyPSM50JxgjmQ==",
          "url": "https://wyvern.ct.digicert.com/2026h2/",
          "mmd": 86400,
          "state": {
            "usable": {
              "timestamp": "2024-11-08T00:00:00Z"
            }
          },
          "temporal_interval": {
            "start_inclusive": "2026-07-01T00:00:00Z",
            "end_exclusive": "2027-01-01T00:00:00Z"
          }
        },
        {
          "description": "DigiCert 'Sphinx2025h1' Log",
          "log_id": "3oWB11AkfGvNy69WN8XngcZM5G7WF2OfjzSnJsnivTc=",
          "key": "MFkwEwYHKoZIzj0CAQYIKoZIzj0DAQcDQgAE4y8fTYkFdSl4uyI9B2JRFHCU5zzq9e6upkiahlJOnlzjlZcou1JLKv3IyYlORTEX043y584YEViYLGBvWCA2bg==",
          "url": "https://sphinx.ct.digicert.com/2025h1/",
          "mmd": 86400,
          "state": {
            "usable": {
              "timestamp": "2024-08-29T03:09:43Z"
            }
          },
          "temporal_interval": {
            "start_inclusive": "2025-01-01T00:00:00Z",
            "end_exclusive": "2025-07-07T00:00:00Z"
          }
        },
        {
          "description": "DigiCert 'Sphinx2025h2' Log",
          "log_id": "pELFBklgYVSPD9TqnPt6LSZFTYepfy/fRVn2J086hFQ=",
          "key": "MFkwEwYHKoZIzj0CAQYIKoZIzj0DAQcDQgAEQYxQE1SxGQW3f0ogbqN1Y8o09Mx06jI7tosDFKhSfzKHXlmeD6sYnilstXJ3GidUhV3BeySoNOPNiM7UUBu+aQ==",
          "url": "https://sphinx.ct.digicert.com/2025h2/",
          "mmd": 86400,
          "state": {
            "usable": {
              "timestamp": "2024-08-29T03:09:43Z"
            }
          },
          "temporal_interval": {
            "start_inclusive": "2025-07-01T00:00:00Z",
            "end_exclusive": "2026-01-07T00:00:00Z"
          }
        },
        {
          "description": "DigiCert 'Sphinx2026h1'",
          "log_id": "SZybad4dfOz8Nt7Nh2SmuFuvCoeAGdFVUvvp6ynd+MM=",
          "key": "MFkwEwYHKoZIzj0CAQYIKoZIzj0DAQcDQgAEq4S++DyHokIlmmacritS51r5IRsZA6UH4kYLH4pefGyu/xl3huh7/O5rNk/yvMOeBQKaCAG1SSM1xNNQK1Hp9A==",
          "url": "https://sphinx.ct.digicert.com/2026h1/",
          "mmd": 86400,
          "state": {
            "usable": {
              "timestamp": "2024-11-08T00:00:00Z"
            }
          },
          "temporal_interval": {
            "start_inclusive": "2026-01-01T00:00:00Z",
            "end_exclusive": "2026-07-01T00:00:00Z"
          }
        },
        {
          "description": "DigiCert 'Sphinx2026h2'",
          "log_id": "lE5Dh/rswe+B8xkkJqgYZQHH0184AgE/cmd9VTcuGdg=",
          "key": "MFkwEwYHKoZIzj0CAQYIKoZIzj0DAQcDQgAEquD0JkRQT/2inuaA4HC1sc6UpfiXgURVQmQcInmnZFnTiZMhZvsJgWAfYlU0OIykOC6slQzr7U9kvEVC9wZ6zQ==",
          "url": "https://sphinx.ct.digicert.com/2026h2/",
          "mmd": 86400,
          "state": {
            "usable": {
              "timestamp": "2024-11-08T00:00:00Z"
            }
          },
          "temporal_interval": {
            "start_inclusive": "2026-07-01T00:00:00Z",
            "end_exclusive": "2027-01-01T00:00:00Z"
          }
        }
      ],
      "tiled_logs": []
    },
    {
      "name": "Sectigo",
      "email": [
        "ctops@sectigo.com"
      ],
      "logs": [
        {
          "description": "Sectigo 'Sabre' CT log",
          "log_id": "VYHUwhaQNgFK6gubVzxT8MDkOHhwJQgXL6OqHQcT0ww=",
          "key": "MFkwEwYHKoZIzj0CAQYIKoZIzj0DAQcDQgAE8m/SiQ8/xfiHHqtls9m7FyOMBg4JVZY9CgiixXGz0akvKD6DEL8S0ERmFe9U4ZiA0M4kbT5nmuk3I85Sk4bagA==",
          "url": "https://sabre.ct.comodo.com/",
          "mmd": 86400,
          "state": {
            "readonly": {
              "timestamp": "2024-05-06T12:53:20Z",
              "final_tree_head": {
                "sha256_root_hash": "rBTMeBSKemBB90yJ598PhN+iLHApXbJpHhlCuNcUfgg=",
                "tree_size": 546099878
              }
            }
          }
        },
        {
          "description": "Sectigo 'Sabre2025h1'",
          "log_id": "4JKz/AwdyOdoNh/eYbmWTQpSeBmKctZyxLBNpW1vVAQ=",
          "key": "MFkwEwYHKoZIzj0CAQYIKoZIzj0DAQcDQgAEfi858egjjrMyBK9NV/bbxXSkem07B1EMWvuAMAXGWgzEdtYGqFdN+9/kgpDCQa5wszGi4/o9XyxdBM20nVWrQQ==",
          "url": "https://sabre2025h1.ct.sectigo.com/",
          "mmd": 86400,
          "state": {
            "usable": {
              "timestamp": "2023-11-26T12:00:00Z"
            }
          },
          "temporal_interval": {
            "start_inclusive": "2025-01-01T00:00:00Z",
            "end_exclusive": "2025-07-01T00:00:00Z"
          }
        },
        {
          "description": "Sectigo 'Sabre2025h2'",
          "log_id": "GgT/SdBUHUCv9qDDv/HYxGcvTuzuI0BomGsXQC7ciX0=",
          "key": "MFkwEwYHKoZIzj0CAQYIKoZIzj0DAQcDQgAEhRMRLXvzk4HkuXzZZDvntYOZZnlZR2pCXta9Yy63kUuuvFbExW4JoNdkGsjBr4mL9VjYuut7g1Lp9OClzc2SzA==",
          "url": "https://sabre2025h2.ct.sectigo.com/",
          "mmd": 86400,
          "state": {
            "usable": {
              "timestamp": "2023-11-26T12:00:00Z"
            }
          },
          "temporal_interval": {
            "start_inclusive": "2025-07-01T00:00:00Z",
            "end_exclusive": "2026-01-01T00:00:00Z"
          }
        },
        {
          "description": "Sectigo 'Mammoth2025h1'",
          "log_id": "E0rfGrWYQgl4DG/vTHqRpBa3I0nOWFdq367ap8Kr4CI=",
          "key": "MFkwEwYHKoZIzj0CAQYIKoZIzj0DAQcDQgAEEzxBtTB9LkqhqGvSxVdrmP5+79Uh4rpdsLqFEW6U4D2ojm1WjUQCnrCDzFTfm05yYks8DDLdhvvrPmbNd1hb5Q==",
          "url": "https://mammoth2025h1.ct.sectigo.com/",
          "mmd": 86400,
          "state": {
            "usable": {
              "timestamp": "2023-11-26T12:00:00Z"
            }
          },
          "temporal_interval": {
            "start_inclusive": "2025-01-01T00:00:00Z",
            "end_exclusive": "2025-07-01T00:00:00Z"
          }
        },
        {
          "description": "Sectigo 'Mammoth2025h2'",
          "log_id": "rxgaKNaMo+CpikycZ6sJ+Lu8IrquvLE4o6Gd0/m2Aw0=",
          "key": "MFkwEwYHKoZIzj0CAQYIKoZIzj0DAQcDQgAEiOLHs9c3o5HXs8XaB1EEK4HtwkQ7daDmZeFKuhuxnKkqhDEprh2L8TOfEi6QsRVnZqB8C1tif2yaajCbaAIWbw==",
          "url": "https://mammoth2025h2.ct.sectigo.com/",
          "mmd": 86400,
          "state": {
            "usable": {
              "timestamp": "2023-11-26T12:00:00Z"
            }
          },
          "temporal_interval": {
            "start_inclusive": "2025-07-01T00:00:00Z",
            "end_exclusive": "2026-01-01T00:00:00Z"
          }
        },
        {
          "description": "Sectigo 'Mammoth2026h1'",
          "log_id": "JS+Uwisp6W6fQRpyBytpXFtS/5epDSVAu/zcUexN7gs=",
          "key": "MFkwEwYHKoZIzj0CAQYIKoZIzj0DAQcDQgAEnssMilHMiuILzoXmr00x2xtqTP2weWuZl8Bd+25FUB1iqsafm2sFPaKrK12Im1Ao4p5YpaX6+eP6FSXjFBMyxA==",
          "url": "https://mammoth2026h1.ct.sectigo.com/",
          "mmd": 86400,
          "state": {
            "usable": {
              "timestamp": "2024-10-14T17:00:00Z"
            }
          },
          "temporal_interval": {
            "start_inclusive": "2026-01-01T00:00:00Z",
            "end_exclusive": "2026-07-01T00:00:00Z"
          }
        },
        {
          "description": "Sectigo 'Mammoth2026h2'",
          "log_id": "lLHBirDQV8R74KwEDh8svI3DdXJ7yVHyClJhJoY7pzw=",
          "key": "MFkwEwYHKoZIzj0CAQYIKoZIzj0DAQcDQgAE7INh8te0u+TkO+vIY3WYz2GQYxQ9XyLfdLpQp1ibaX3mY4lt2ddRhD/4AtjI/8KXceV+J/VysY8kJ1cKDXTAtg==",
          "url": "https://mammoth2026h2.ct.sectigo.com/",
          "mmd": 86400,
          "state": {
            "usable": {
              "timestamp": "2024-10-14T17:00:00Z"
            }
          },
          "temporal_interval": {
            "start_inclusive": "2026-07-01T00:00:00Z",
            "end_exclusive": "2027-01-01T00:00:00Z"
          }
        },
        {
          "description": "Sectigo 'Sabre2026h1'",
          "log_id": "VmzVo3a+g9/jQrZ1xJwjJJinabrDgsurSaOHfZqzLQE=",
          "key": "MFkwEwYHKoZIzj0CAQYIKoZIzj0DAQcDQgAEhCa8Nr3YjTyHnuAQr82U2de5UYA0fvdYXHPq6wmTuBB7kJx9x82WQ+1TbpUhRmdR8N62yZ6q4oBtziWBNNdqYA==",
          "url": "https://sabre2026h1.ct.sectigo.com/",
          "mmd": 86400,
          "state": {
            "usable": {
              "timestamp": "2024-10-14T17:00:00Z"
            }
          },
          "temporal_interval": {
            "start_inclusive": "2026-01-01T00:00:00Z",
            "end_exclusive": "2026-07-01T00:00:00Z"
          }
        },
        {
          "description": "Sectigo 'Sabre2026h2'",
          "log_id": "H1bRq5RwSkHdP+r99GmTVTAsFDG/5hNGCJ//rnldzC8=",
          "key": "MFkwEwYHKoZIzj0CAQYIKoZIzj0DAQcDQgAEzjXK7DkHgtp3J4bk8n7F3Djym6mrjKfA7YMePmobwPCVVroyM0x1fAkH6eE+ZTVj8Em+ctGqna99CMS0jVk9cw==",
          "url": "https://sabre2026h2.ct.sectigo.com/",
          "mmd": 86400,
          "state": {
            "usable": {
              "timestamp": "2024-10-14T17:00:00Z"
            }
          },
          "temporal_interval": {
            "start_inclusive": "2026-07-01T00:00:00Z",
            "end_exclusive": "2027-01-01T00:00:00Z"
          }
        }
      ],
      "tiled_logs": []
    },
    {
      "name": "Let's Encrypt",
      "email": [
        "sre@letsencrypt.org"
      ],
      "logs": [
        {
          "description": "Let's Encrypt 'Oak2025h1'",
          "log_id": "ouMK5EXvva2bfjjtR2d3U9eCW4SU1yteGyzEuVCkR+c=",
          "key": "MFkwEwYHKoZIzj0CAQYIKoZIzj0DAQcDQgAEKeBpU9ejnCaIZeX39EsdF5vDvf8ELTHdLPxikl4y4EiROIQfS4ercpnMHfh8+TxYVFs3ELGr2IP7hPGVPy4vHA==",
          "url": "https://oak.ct.letsencrypt.org/2025h1/",
          "mmd": 86400,
          "state": {
            "usable": {
              "timestamp": "2023-11-26T12:00:00Z"
            }
          },
          "temporal_interval": {
            "start_inclusive": "2024-12-20T00:00:00Z",
            "end_exclusive": "2025-07-20T00:00:00Z"
          }
        },
        {
          "description": "Let's Encrypt 'Oak2025h2'",
          "log_id": "DeHyMCvTDcFAYhIJ6lUu/Ed0fLHX6TDvDkIetH5OqjQ=",
          "key": "MFkwEwYHKoZIzj0CAQYIKoZIzj0DAQcDQgAEtXYwB63GyNLkS9L1vqKNnP10+jrW+lldthxg090fY4eG40Xg1RvANWqrJ5GVydc9u8H3cYZp9LNfkAmqrr2NqQ==",
          "url": "https://oak.ct.letsencrypt.org/2025h2/",
          "mmd": 86400,
          "state": {
            "usable": {
              "timestamp": "2023-11-26T12:00:00Z"
            }
          },
          "temporal_interval": {
            "start_inclusive": "2025-06-20T00:00:00Z",
            "end_exclusive": "2026-01-20T00:00:00Z"
          }
        },
        {
          "description": "Let's Encrypt 'Oak2026h1'",
          "log_id": "GYbUxyiqb/66A294Kk0BkarOLXIxD67OXXBBLSVMx9Q=",
          "key": "MFkwEwYHKoZIzj0CAQYIKoZIzj0DAQcDQgAEmdRhcCL6d5MNs8eAliJRvyV5sQFC6UF7iwzHsmVaifT64gJG1IrHzBAHESdFSJAjQN56TYky+9cK616MovH2SQ==",
          "url": "https://oak.ct.letsencrypt.org/2026h1/",
          "mmd": 86400,
          "state": {
            "usable": {
              "timestamp": "2024-11-04T00:00:00Z"
            }
          },
          "temporal_interval": {
            "start_inclusive": "2025-12-20T00:00:00Z",
            "end_exclusive": "2026-07-20T00:00:00Z"
          }
        },
        {
          "description": "Let's Encrypt 'Oak2026h2'",
          "log_id": "rKswcGzr7IQx9BPS9JFfER5CJEOx8qaMTzwrO6ceAsM=",
          "key": "MFkwEwYHKoZIzj0CAQYIKoZIzj0DAQcDQgAEanCds5bj7IU2lcNPnIvZfMnVkSmu69aH3AS8O/Y0D/bbCPdSqYjvuz9Z1tT29PxcqYxf+w1g5CwPFuwqsm3rFQ==",
          "url": "https://oak.ct.letsencrypt.org/2026h2/",
          "mmd": 86400,
          "state": {
            "usable": {
              "timestamp": "2024-11-04T00:00:00Z"
            }
          },
          "temporal_interval": {
            "start_inclusive": "2026-06-20T00:00:00Z",
            "end_exclusive": "2027-01-20T00:00:00Z"
          }
        }
      ],
      "tiled_logs": []
    },
    {
      "name": "TrustAsia",
      "email": [
        "trustasia-ct-logs@trustasia.com"
      ],
      "logs": [
        {
          "description": "TrustAsia Log2025a",
          "log_id": "KOKBOP2DIUXpqdaqdTdtg3eohRKzwH9yQUgh3L3pjGY=",
          "key": "MFkwEwYHKoZIzj0CAQYIKoZIzj0DAQcDQgAEcOWxpAl5K534o6DfGO+VXQNse6GRqbiAfexcAgjibi98MnC9loRfpmLpZbV8kFi6ItX59WlUt6iUTjIJriYRTQ==",
          "url": "https://ct2025-a.trustasia.com/log2025a/",
          "mmd": 86400,
          "state": {
            "usable": {
              "timestamp": "2023-11-26T12:00:00Z"
            }
          },
          "temporal_interval": {
            "start_inclusive": "2025-01-01T00:00:00Z",
            "end_exclusive": "2026-01-01T00:00:00Z"
          }
        },
        {
          "description": "TrustAsia Log2025b",
          "log_id": "KCyL3YEP+QkSCs4W1uDsIBvqgqOkrxnZ7/tZ6D/cQmg=",
          "key": "MFkwEwYHKoZIzj0CAQYIKoZIzj0DAQcDQgAEqqCL22cUXZeJHQiNBtfBlI6w+kxG1VMIeCsEU2zz3rHRU0DakFfmGp48xwO4vS+pz+h7XuFLYOU4Q2CXwVsvZQ==",
          "url": "https://ct2025-b.trustasia.com/log2025b/",
          "mmd": 86400,
          "state": {
            "usable": {
              "timestamp": "2023-11-26T12:00:00Z"
            }
          },
          "temporal_interval": {
            "start_inclusive": "2025-01-01T00:00:00Z",
            "end_exclusive": "2026-01-01T00:00:00Z"
          }
        },
        {
          "description": "TrustAsia 'log2026a'",
          "log_id": "dNudWPfUfp39eHoWKpkcGM9pjafHKZGMmhiwRQ26RLw=",
          "key": "MFkwEwYHKoZIzj0CAQYIKoZIzj0DAQcDQgAEp056yaYH+f907JjLSeEAJLNZLoP9wHA1M0xjynSDwDxbU0B8MR81pF8P5O5PiRfoWy7FrAAFyXY3RZcDFf9gWQ==",
          "url": "https://ct2026-a.trustasia.com/log2026a/",
          "mmd": 86400,
          "state": {
            "usable": {
              "timestamp": "2024-09-20T00:00:00Z"
            }
          },
          "temporal_interval": {
            "start_inclusive": "2025-12-24T00:00:00Z",
            "end_exclusive": "2027-01-08T00:00:00Z"
          }
        },
        {
          "description": "TrustAsia 'log2026b'",
          "log_id": "Jbfv3qETAZPtkweXcKoyKiZiDeNayKp8dRl94LGp4GU=",
          "key": "MFkwEwYHKoZIzj0CAQYIKoZIzj0DAQcDQgAEDxKMqebj7GLu31jIUOYmcHYQtwQ5s6f4THM7wzhaEgBM4NoOFopFMgoxqiLHnX0FU8eelOqbV0a/T6R++9/6hQ==",
          "url": "https://ct2026-b.trustasia.com/log2026b/",
          "mmd": 86400,
          "state": {
            "usable": {
              "timestamp": "2024-09-20T00:00:00Z"
            }
          },
          "temporal_interval": {
            "start_inclusive": "2025-12-24T00:00:00Z",
            "end_exclusive": "2027-01-08T00:00:00Z"
          }
        }
      ],
      "tiled_logs": []
    }
  ]
}
